FIPS Code for U.S. States and Counties. • fips
…
NCHS Urban-Rural Classification Scheme for Counties. (Source)

Installation

# install.package("devtools")
devtools::install_github("jjchern/fips")

Usage

State-level FIPS code

library(tidyverse)
fips::state
#> # A tibble: 51 x 3
#>     fips  usps                state
#>    <chr> <chr>                <chr>
#>  1    01    AL              Alabama
#>  2    02    AK               Alaska
#>  3    04    AZ              Arizona
#>  4    05    AR             Arkansas
#>  5    06    CA           California
#>  6    08    CO             Colorado
#>  7    09    CT          Connecticut
#>  8    10    DE             Delaware
#>  9    11    DC District of Columbia
#> 10    12    FL              Florida
#> # ... with 41 more rows

# fips::fips includes FIPS code for other outlying areas
fips::fips 
#> # A tibble: 57 x 3
#>     fips  usps                state
#>    <chr> <chr>                <chr>
#>  1    01    AL              Alabama
#>  2    02    AK               Alaska
#>  3    04    AZ              Arizona
#>  4    05    AR             Arkansas
#>  5    06    CA           California
#>  6    08    CO             Colorado
#>  7    09    CT          Connecticut
#>  8    10    DE             Delaware
#>  9    11    DC District of Columbia
#> 10    12    FL              Florida
#> # ... with 47 more rows
…
2010 FIPS code for counties

fips::county
#> # A tibble: 3,235 x 4
#>     usps   state  fips          county
#>    <chr>   <chr> <chr>           <chr>
#>  1    AL Alabama 01001  Autauga County
#>  2    AL Alabama 01003  Baldwin County
#>  3    AL Alabama 01005  Barbour County
#>  4    AL Alabama 01007     Bibb County
#>  5    AL Alabama 01009   Blount County
#>  6    AL Alabama 01011  Bullock County
#>  7    AL Alabama 01013   Butler County
#>  8    AL Alabama 01015  Calhoun County
#>  9    AL Alabama 01017 Chambers County
#> 10    AL Alabama 01019 Cherokee County
#> # ... with 3,225 more rows

NCHS Urban Rural Codes

fips::nchs_urc
#> # A tibble: 3,147 x 10
#>     usps statefip  fips          county  code2013  code2006  code1990
#>    <chr>    <chr> <chr>           <chr> <dbl+lbl> <dbl+lbl> <dbl+lbl>
#>  1    AL       01 01001  Autauga County         3         3         3
#>  2    AL       01 01003  Baldwin County         4         5         3
#>  3    AL       01 01005  Barbour County         6         5         5
#>  4    AL       01 01007     Bibb County         2         2         6
#>  5    AL       01 01009   Blount County         2         2         3
#>  6    AL       01 01011  Bullock County         6         6         6
#>  7    AL       01 01013   Butler County         6         6         6
#>  8    AL       01 01015  Calhoun County         4         4         4
#>  9    AL       01 01017 Chambers County         5         5         6
#> 10    AL       01 01019 Cherokee County         6         6         6
#> # ... with 3,137 more rows, and 3 more variables: cbsatitle <chr>,
#> #   cbsapop <dbl>, ctypop <dbl>
…
